water1 and water2 : aug-cc-pVTZ : MC+BS
 &TRN
  ISITDALT=T, OUT=F, TOLER=15, DIMER=F, BLKMB=F, SPHG=T,
  MEMTRAN=**********,
  basis='sssssppppdddffsssspppddsssspppddssspppddffsssssppppdddffsssspppddsssspppdd',
  tags='mmmmmmmmmaaaaammmmaaaaammmmaaaaammmmmmmmmmmmmmmmmmmbbbbbmmmmbbbbbmmmmbbbbb'
 &END
 
 &CCINP
   CCPRINT=F, VCRIT=1.0D-14, TOLITER=1.0D-12
 &END
 
 &INPUTCOR
  SAPTKS=T, E3IND=T, E30XI=T,
  PRINT=F, MEMSAPT=**********
 &END
