 ================================================================
 Compiled on Dec 11 2018 at 10:56:20
    Compiler : ifort
    Version  : unknown
 VCS BASE repository version:
     cd550913bd6f6592c15fa41b95182c40911ccddc
 Working directory: 
     /scratch/ajs1/HCONH2_03/camcasp
 Running on: whirligig
 ================================================================

 
 Summary of CamCASP calculation
 ==============================
           Name           Value           Units     Description  Misc(optional)
================================================================================
--------------------------------------------------------------------------------
